<?xml version="1.0" encoding="utf-8"?>
<!-- Generator: Adobe Illustrator 16.0.2, SVG Export Plug-In . SVG Version: 6.00 Build 0)  -->
<!DOCTYPE svg PUBLIC "-//W3C//DTD SVG 1.1//EN" "http://www.w3.org/Graphics/SVG/1.1/DTD/svg11.dtd">
<svg version="1.1" id="Layer_1" xmlns="http://www.w3.org/2000/svg" xmlns:xlink="http://www.w3.org/1999/xlink" x="0px" y="0px"
	 width="612px" height="152.455px" viewBox="0 319.772 612 152.455" enable-background="new 0 319.772 612 152.455"
	 xml:space="preserve">
<g>
	<path fill="#2B2924" d="M89.295,422.135c-3.267,4.356-7.623,7.623-14.157,11.979c-7.623,3.267-16.334,5.444-27.224,5.444
		c-14.157,0-25.046-4.355-34.847-13.067C4.356,416.69,0,405.801,0,391.644v-23.957c0-14.157,4.356-26.135,13.067-34.847
		c7.623-8.712,18.513-13.067,32.669-13.067c13.067,0,22.868,3.267,30.491,9.8c7.623,6.534,11.979,15.246,11.979,25.046l0,0H72.961
		c0-6.534-3.267-11.979-7.623-16.334c-4.355-4.356-10.89-6.534-19.601-6.534c-8.712,0-16.334,3.267-21.779,9.801
		c-5.445,6.534-7.623,15.246-7.623,26.135v23.957c0,9.801,3.267,18.512,8.712,25.046s14.156,9.801,22.868,9.801
		c6.534,0,11.979-1.089,16.334-2.178c4.356-2.179,7.623-3.268,8.712-6.534v-26.135H47.915v-11.979h41.381V422.135z"/>
	<path fill="#2B2924" d="M149.188,439.559c-11.979,0-21.779-4.355-28.313-11.979c-7.623-7.623-10.89-18.513-10.89-31.58v-3.267
		c0-11.979,3.267-22.868,10.89-30.491c7.623-7.623,16.334-11.979,26.135-11.979c11.979,0,20.69,3.267,26.135,10.89
		c5.445,6.534,8.711,16.334,8.711,28.313v9.801H126.32l0,0c0,8.711,2.178,15.245,6.534,20.689c4.356,5.445,9.801,7.623,17.423,7.623
		c5.445,0,9.801-1.089,14.157-2.178s7.623-3.268,10.89-6.534l6.534,9.801c-3.267,3.267-7.623,5.445-11.979,7.623
		C162.256,438.47,155.723,439.559,149.188,439.559z M147.011,362.242c-5.445,0-9.801,2.178-13.068,6.534
		c-3.267,4.356-6.534,9.801-6.534,16.334l0,0h40.292v-1.089c0-6.534-2.178-10.89-5.445-15.246
		C158.989,364.42,153.544,362.242,147.011,362.242z"/>
	<path fill="#2B2924" d="M213.438,351.353l1.089,13.067c3.267-4.356,6.534-7.623,10.89-10.89c4.356-2.178,9.801-3.267,15.246-3.267
		c9.801,0,16.334,3.267,21.779,8.712s7.623,14.157,7.623,25.046v54.448h-15.246v-54.448c0-7.623-1.089-13.068-4.355-16.334
		c-3.267-3.267-7.623-4.356-14.157-4.356c-4.356,0-8.712,1.089-11.979,3.267c-4.356,1.089-6.534,4.356-8.712,7.623v63.16H200.37
		v-86.028H213.438z"/>
	<path fill="#2B2924" d="M327.779,439.559c-11.979,0-21.779-4.355-28.313-11.979c-7.623-7.623-10.889-18.513-10.889-31.58v-3.267
		c0-11.979,3.267-22.868,10.889-30.491c7.623-7.623,16.335-11.979,26.136-11.979c11.979,0,20.69,3.267,26.135,10.89
		c5.445,6.534,8.712,16.334,8.712,28.313v9.801h-55.537l0,0c0,8.711,2.178,15.245,6.534,20.689c4.355,5.445,9.8,7.623,17.423,7.623
		c5.445,0,9.801-1.089,14.157-2.178c4.355-1.089,7.622-3.268,10.89-6.534l6.533,9.801c-3.267,3.267-7.623,5.445-11.979,7.623
		C341.936,438.47,335.402,439.559,327.779,439.559z M325.602,362.242c-5.445,0-9.801,2.178-13.067,6.534
		c-3.268,4.356-6.534,9.801-6.534,16.334l0,0h40.292v-1.089c0-6.534-2.178-10.89-5.445-15.246
		C337.58,364.42,332.135,362.242,325.602,362.242z"/>
	<path fill="#2B2924" d="M429.054,414.513c0-3.267-1.089-6.534-4.356-8.712c-2.178-2.178-7.622-4.355-15.245-5.445
		c-10.89-2.178-18.513-5.444-23.958-9.8c-5.444-4.356-7.622-8.712-7.622-16.334c0-6.534,3.267-13.068,8.712-17.423
		c5.444-5.445,14.156-7.623,22.868-7.623c9.801,0,18.513,2.178,23.957,7.623c5.445,5.445,8.712,10.89,8.712,18.512l0,0h-15.246
		c0-3.267-1.089-7.623-4.355-9.801c-3.267-3.267-7.623-4.356-13.067-4.356c-5.445,0-9.801,1.089-11.979,3.267
		c-2.179,2.178-4.356,5.445-4.356,8.712c0,3.267,1.089,6.534,3.267,7.623c2.179,2.178,7.623,3.267,14.157,5.445
		c10.89,2.178,18.513,5.445,23.957,9.801c5.445,4.355,7.623,9.801,7.623,16.334c0,7.623-3.268,14.157-9.801,18.513
		c-6.534,4.356-14.156,7.623-23.957,7.623c-10.89,0-19.602-3.267-26.136-8.712c-6.534-5.444-9.801-11.979-8.712-19.602l0,0h15.246
		c0,5.445,2.178,9.801,6.533,11.979c4.356,2.179,8.712,4.356,14.157,4.356c5.444,0,9.801-1.089,13.067-3.267
		C426.875,421.046,429.054,417.779,429.054,414.513z"/>
	<path fill="#2B2924" d="M490.035,405.801l3.268,10.89l0,0l20.69-65.338h17.423l-34.847,99.096
		c-2.178,5.445-5.444,10.89-9.801,15.246c-4.355,4.355-9.801,6.533-16.334,6.533c-1.09,0-3.268,0-4.356,0s-3.267-1.089-4.355-1.089
		l1.089-11.979c0,0,1.089,0,3.267,0s3.267,0,4.355,0c3.268,0,6.534-1.089,8.712-4.355c2.179-3.268,4.356-6.534,5.445-9.801
		l3.267-8.712l-31.58-84.939h17.424L490.035,405.801z"/>
	<path fill="#2B2924" d="M596.755,414.513c0-3.267-1.089-6.534-4.356-8.712c-2.178-2.178-7.623-4.355-15.245-5.445
		c-10.89-2.178-18.513-5.444-23.958-9.8c-5.444-4.356-7.622-8.712-7.622-16.334c0-6.534,3.267-13.068,8.712-17.423
		c5.444-5.445,14.156-7.623,22.868-7.623c9.801,0,18.512,2.178,23.957,7.623c5.444,5.445,8.712,10.89,8.712,18.512l0,0h-15.246
		c0-3.267-1.089-7.623-4.355-9.801c-2.178-2.178-6.534-3.267-11.979-3.267c-5.445,0-9.801,1.089-11.979,3.267
		c-2.179,2.178-4.356,5.445-4.356,8.712c0,3.267,1.089,6.534,3.268,7.623c2.178,2.178,7.622,3.267,14.156,5.445
		c10.89,2.178,18.513,5.445,23.957,9.801c6.534,4.356,8.712,9.801,8.712,16.335c0,7.622-3.267,14.156-9.801,18.512
		c-6.533,4.356-14.156,7.623-23.957,7.623c-10.89,0-19.602-3.267-26.136-8.712c-6.533-5.444-9.801-11.979-8.712-19.601l0,0h15.246
		c0,5.444,2.178,9.8,6.534,11.979c4.355,2.178,8.711,4.355,14.156,4.355c5.444,0,9.801-1.089,13.067-3.267
		C594.576,421.046,596.755,417.779,596.755,414.513z"/>
</g>
</svg>
