<?xml version="1.0" encoding="utf-8"?>
<!-- Generator: Adobe Illustrator 19.2.1, SVG Export Plug-In . SVG Version: 6.00 Build 0)  -->
<svg version="1.1" id="Layer_1" xmlns="http://www.w3.org/2000/svg" xmlns:xlink="http://www.w3.org/1999/xlink" x="0px" y="0px"
	 viewBox="0 0 22.7 22.7" style="enable-background:new 0 0 22.7 22.7;" xml:space="preserve">
<style type="text/css">
	.st0{fill:#88B941;}
</style>
<path class="st0" d="M11.3,0C5.1,0,0,5.1,0,11.3c0,6.3,5.1,11.3,11.3,11.3s11.3-5.1,11.3-11.3C22.7,5.1,17.6,0,11.3,0z M11.4,19.7
	c0,0.1-0.1,0.2,0,0.2c0,0,0,0.1,0,0.1c0,0.1,0,0.1,0,0.2c0,0,0,0.1-0.1,0.1l-0.1,0.1c-2.2-0.6-4-2.3-5.4-4c-1.5-1.9-2.7-4.2-3.1-6.6
	C2.5,8.5,2.5,7.2,3,5.9c2.5,1.6,4.6,3.9,6.2,6.4C10.5,14.5,11.4,17,11.4,19.7C11.4,19.6,11.4,19.6,11.4,19.7z M11.5,11.7
	c0,0-0.1,0.1-0.1,0.1c0,0,0,0,0,0c0,0-0.1,0-0.1,0.1c0,0,0,0-0.1,0l-0.1,0c-0.9-1-1.3-2.4-1.5-3.7C9.4,6.9,9.5,5.4,10,4.1
	c0.3-0.7,0.7-1.4,1.3-1.9c0.8,1.6,1.2,3.3,1.2,5.1C12.6,8.8,12.3,10.4,11.5,11.7C11.5,11.7,11.5,11.7,11.5,11.7z M17.3,12.6
	c-1.2,1.7-2.8,3.2-4.7,4c0,0,0,0,0,0c-0.1,0-0.1,0-0.2,0c0,0-0.1,0-0.1,0c-0.1,0-0.1,0-0.1,0c0,0-0.1,0-0.1,0l-0.1-0.1
	c-0.2-1.8,0.4-3.7,1.3-5.3c1-1.7,2.3-3.3,4-4.4c0.9-0.6,1.9-1,3-1C19.7,8.3,18.7,10.6,17.3,12.6z"/>
</svg>
